^E:\WINTER 2018\CIS200L\PROJECT_2_HOME_V2\PROJECT_2_HOME_V2\STDAFX.CPP
E:\WINTER 2018\CIS200L\PROJECT_2_HOME_V2\PROJECT_2_HOME_V2\DEBUG\PROJECT_2_HOME_V2.PCH
E:\WINTER 2018\CIS200L\PROJECT_2_HOME_V2\PROJECT_2_HOME_V2\DEBUG\VC141.PDB
E:\WINTER 2018\CIS200L\PROJECT_2_HOME_V2\PROJECT_2_HOME_V2\DEBUG\VC141.IDB
E:\WINTER 2018\CIS200L\PROJECT_2_HOME_V2\PROJECT_2_HOME_V2\DEBUG\STDAFX.OBJ
^E:\WINTER 2018\CIS200L\PROJECT_2_HOME_V2\PROJECT_2_HOME_V2\AGENCYEMPLOYEEPAY.CPP|E:\WINTER 2018\CIS200L\PROJECT_2_HOME_V2\PROJECT_2_HOME_V2\EMPLOYEE.CPP|E:\WINTER 2018\CIS200L\PROJECT_2_HOME_V2\PROJECT_2_HOME_V2\HOURLYEMPLOYEE.CPP|E:\WINTER 2018\CIS200L\PROJECT_2_HOME_V2\PROJECT_2_HOME_V2\HOURLYEMPLOYEEPAY.CPP|E:\WINTER 2018\CIS200L\PROJECT_2_HOME_V2\PROJECT_2_HOME_V2\PROJECT_2_HOME_V2.CPP|E:\WINTER 2018\CIS200L\PROJECT_2_HOME_V2\PROJECT_2_HOME_V2\SALARYEMPLOYEEPAY.CPP
E:\WINTER 2018\CIS200L\PROJECT_2_HOME_V2\PROJECT_2_HOME_V2\DEBUG\VC141.PDB
E:\WINTER 2018\CIS200L\PROJECT_2_HOME_V2\PROJECT_2_HOME_V2\DEBUG\VC141.IDB
E:\WINTER 2018\CIS200L\PROJECT_2_HOME_V2\PROJECT_2_HOME_V2\DEBUG\AGENCYEMPLOYEEPAY.OBJ
E:\WINTER 2018\CIS200L\PROJECT_2_HOME_V2\PROJECT_2_HOME_V2\DEBUG\EMPLOYEE.OBJ
E:\WINTER 2018\CIS200L\PROJECT_2_HOME_V2\PROJECT_2_HOME_V2\DEBUG\HOURLYEMPLOYEE.OBJ
E:\WINTER 2018\CIS200L\PROJECT_2_HOME_V2\PROJECT_2_HOME_V2\DEBUG\HOURLYEMPLOYEEPAY.OBJ
E:\WINTER 2018\CIS200L\PROJECT_2_HOME_V2\PROJECT_2_HOME_V2\DEBUG\PROJECT_2_HOME_V2.OBJ
E:\WINTER 2018\CIS200L\PROJECT_2_HOME_V2\PROJECT_2_HOME_V2\DEBUG\SALARYEMPLOYEEPAY.OBJ
^E:\WINTER 2018\CIS200L\PROJECT_2_HOME_V2\PROJECT_2_HOME_V2\AGENCYEMPLOYEEPAY.CPP
E:\WINTER 2018\CIS200L\PROJECT_2_HOME_V2\PROJECT_2_HOME_V2\DEBUG\VC141.PDB
^E:\WINTER 2018\CIS200L\PROJECT_2_HOME_V2\PROJECT_2_HOME_V2\EMPLOYEE.CPP
E:\WINTER 2018\CIS200L\PROJECT_2_HOME_V2\PROJECT_2_HOME_V2\DEBUG\VC141.PDB
E:\WINTER 2018\CIS200L\PROJECT_2_HOME_V2\PROJECT_2_HOME_V2\DEBUG\VC141.IDB
E:\WINTER 2018\CIS200L\PROJECT_2_HOME_V2\PROJECT_2_HOME_V2\DEBUG\EMPLOYEE.OBJ
^E:\WINTER 2018\CIS200L\PROJECT_2_HOME_V2\PROJECT_2_HOME_V2\HOURLYEMPLOYEE.CPP
E:\WINTER 2018\CIS200L\PROJECT_2_HOME_V2\PROJECT_2_HOME_V2\DEBUG\VC141.PDB
^E:\WINTER 2018\CIS200L\PROJECT_2_HOME_V2\PROJECT_2_HOME_V2\HOURLYEMPLOYEEPAY.CPP
E:\WINTER 2018\CIS200L\PROJECT_2_HOME_V2\PROJECT_2_HOME_V2\DEBUG\VC141.PDB
E:\WINTER 2018\CIS200L\PROJECT_2_HOME_V2\PROJECT_2_HOME_V2\DEBUG\VC141.IDB
E:\WINTER 2018\CIS200L\PROJECT_2_HOME_V2\PROJECT_2_HOME_V2\DEBUG\HOURLYEMPLOYEEPAY.OBJ
^E:\WINTER 2018\CIS200L\PROJECT_2_HOME_V2\PROJECT_2_HOME_V2\PROJECT_2_HOME_V2.CPP
E:\WINTER 2018\CIS200L\PROJECT_2_HOME_V2\PROJECT_2_HOME_V2\DEBUG\VC141.PDB
E:\WINTER 2018\CIS200L\PROJECT_2_HOME_V2\PROJECT_2_HOME_V2\DEBUG\VC141.IDB
E:\WINTER 2018\CIS200L\PROJECT_2_HOME_V2\PROJECT_2_HOME_V2\DEBUG\PROJECT_2_HOME_V2.OBJ
^E:\WINTER 2018\CIS200L\PROJECT_2_HOME_V2\PROJECT_2_HOME_V2\SALARYEMPLOYEEPAY.CPP
E:\WINTER 2018\CIS200L\PROJECT_2_HOME_V2\PROJECT_2_HOME_V2\DEBUG\VC141.PDB
^E:\WINTER 2018\CIS200L\PROJECT_2_HOME_V2\PROJECT_2_HOME_V2\PROJECT_2_HOME_V2.CPP|E:\WINTER 2018\CIS200L\PROJECT_2_HOME_V2\PROJECT_2_HOME_V2\SALARYEMPLOYEEPAY.CPP
E:\WINTER 2018\CIS200L\PROJECT_2_HOME_V2\PROJECT_2_HOME_V2\DEBUG\VC141.PDB
E:\WINTER 2018\CIS200L\PROJECT_2_HOME_V2\PROJECT_2_HOME_V2\DEBUG\VC141.IDB
E:\WINTER 2018\CIS200L\PROJECT_2_HOME_V2\PROJECT_2_HOME_V2\DEBUG\PROJECT_2_HOME_V2.OBJ
E:\WINTER 2018\CIS200L\PROJECT_2_HOME_V2\PROJECT_2_HOME_V2\DEBUG\SALARYEMPLOYEEPAY.OBJ
^E:\WINTER 2018\CIS200L\PROJECT_2_HOME_V2\PROJECT_2_HOME_V2\EMPLOYEE.CPP|E:\WINTER 2018\CIS200L\PROJECT_2_HOME_V2\PROJECT_2_HOME_V2\HOURLYEMPLOYEE.CPP|E:\WINTER 2018\CIS200L\PROJECT_2_HOME_V2\PROJECT_2_HOME_V2\HOURLYEMPLOYEEPAY.CPP|E:\WINTER 2018\CIS200L\PROJECT_2_HOME_V2\PROJECT_2_HOME_V2\PROJECT_2_HOME_V2.CPP
E:\WINTER 2018\CIS200L\PROJECT_2_HOME_V2\PROJECT_2_HOME_V2\DEBUG\VC141.PDB
E:\WINTER 2018\CIS200L\PROJECT_2_HOME_V2\PROJECT_2_HOME_V2\DEBUG\VC141.IDB
E:\WINTER 2018\CIS200L\PROJECT_2_HOME_V2\PROJECT_2_HOME_V2\DEBUG\EMPLOYEE.OBJ
E:\WINTER 2018\CIS200L\PROJECT_2_HOME_V2\PROJECT_2_HOME_V2\DEBUG\HOURLYEMPLOYEE.OBJ
E:\WINTER 2018\CIS200L\PROJECT_2_HOME_V2\PROJECT_2_HOME_V2\DEBUG\HOURLYEMPLOYEEPAY.OBJ
E:\WINTER 2018\CIS200L\PROJECT_2_HOME_V2\PROJECT_2_HOME_V2\DEBUG\PROJECT_2_HOME_V2.OBJ
^E:\WINTER 2018\CIS200L\PROJECT_2_HOME_V2\PROJECT_2_HOME_V2\HOURLYEMPLOYEEPAY.CPP|E:\WINTER 2018\CIS200L\PROJECT_2_HOME_V2\PROJECT_2_HOME_V2\PROJECT_2_HOME_V2.CPP
E:\WINTER 2018\CIS200L\PROJECT_2_HOME_V2\PROJECT_2_HOME_V2\DEBUG\VC141.PDB
E:\WINTER 2018\CIS200L\PROJECT_2_HOME_V2\PROJECT_2_HOME_V2\DEBUG\VC141.IDB
E:\WINTER 2018\CIS200L\PROJECT_2_HOME_V2\PROJECT_2_HOME_V2\DEBUG\HOURLYEMPLOYEEPAY.OBJ
E:\WINTER 2018\CIS200L\PROJECT_2_HOME_V2\PROJECT_2_HOME_V2\DEBUG\PROJECT_2_HOME_V2.OBJ
^E:\WINTER 2018\CIS200L\PROJECT_2_HOME_V2\PROJECT_2_HOME_V2\EMPLOYEE.CPP|E:\WINTER 2018\CIS200L\PROJECT_2_HOME_V2\PROJECT_2_HOME_V2\PROJECT_2_HOME_V2.CPP
E:\WINTER 2018\CIS200L\PROJECT_2_HOME_V2\PROJECT_2_HOME_V2\DEBUG\VC141.PDB
E:\WINTER 2018\CIS200L\PROJECT_2_HOME_V2\PROJECT_2_HOME_V2\DEBUG\VC141.IDB
E:\WINTER 2018\CIS200L\PROJECT_2_HOME_V2\PROJECT_2_HOME_V2\DEBUG\EMPLOYEE.OBJ
E:\WINTER 2018\CIS200L\PROJECT_2_HOME_V2\PROJECT_2_HOME_V2\DEBUG\PROJECT_2_HOME_V2.OBJ
^E:\WINTER 2018\CIS200L\PROJECT_2_HOME_V2\PROJECT_2_HOME_V2\EMPLOYEE.CPP|E:\WINTER 2018\CIS200L\PROJECT_2_HOME_V2\PROJECT_2_HOME_V2\HOURLYEMPLOYEE.CPP|E:\WINTER 2018\CIS200L\PROJECT_2_HOME_V2\PROJECT_2_HOME_V2\PROJECT_2_HOME_V2.CPP|E:\WINTER 2018\CIS200L\PROJECT_2_HOME_V2\PROJECT_2_HOME_V2\SALARYEMPLOYEEPAY.CPP
E:\WINTER 2018\CIS200L\PROJECT_2_HOME_V2\PROJECT_2_HOME_V2\DEBUG\VC141.PDB
E:\WINTER 2018\CIS200L\PROJECT_2_HOME_V2\PROJECT_2_HOME_V2\DEBUG\VC141.IDB
E:\WINTER 2018\CIS200L\PROJECT_2_HOME_V2\PROJECT_2_HOME_V2\DEBUG\EMPLOYEE.OBJ
E:\WINTER 2018\CIS200L\PROJECT_2_HOME_V2\PROJECT_2_HOME_V2\DEBUG\HOURLYEMPLOYEE.OBJ
E:\WINTER 2018\CIS200L\PROJECT_2_HOME_V2\PROJECT_2_HOME_V2\DEBUG\PROJECT_2_HOME_V2.OBJ
E:\WINTER 2018\CIS200L\PROJECT_2_HOME_V2\PROJECT_2_HOME_V2\DEBUG\SALARYEMPLOYEEPAY.OBJ
^E:\WINTER 2018\CIS200L\PROJECT_2_HOME_V2\PROJECT_2_HOME_V2\HOURLYEMPLOYEEPAY.CPP|E:\WINTER 2018\CIS200L\PROJECT_2_HOME_V2\PROJECT_2_HOME_V2\PROJECT_2_HOME_V2.CPP|E:\WINTER 2018\CIS200L\PROJECT_2_HOME_V2\PROJECT_2_HOME_V2\SALARYEMPLOYEEPAY.CPP
E:\WINTER 2018\CIS200L\PROJECT_2_HOME_V2\PROJECT_2_HOME_V2\DEBUG\VC141.PDB
E:\WINTER 2018\CIS200L\PROJECT_2_HOME_V2\PROJECT_2_HOME_V2\DEBUG\VC141.IDB
E:\WINTER 2018\CIS200L\PROJECT_2_HOME_V2\PROJECT_2_HOME_V2\DEBUG\HOURLYEMPLOYEEPAY.OBJ
E:\WINTER 2018\CIS200L\PROJECT_2_HOME_V2\PROJECT_2_HOME_V2\DEBUG\PROJECT_2_HOME_V2.OBJ
E:\WINTER 2018\CIS200L\PROJECT_2_HOME_V2\PROJECT_2_HOME_V2\DEBUG\SALARYEMPLOYEEPAY.OBJ
^E:\WINTER 2018\CIS200L\PROJECT_2_HOME_V2\PROJECT_2_HOME_V2\AGENCYEMPLOYEEPAY.CPP|E:\WINTER 2018\CIS200L\PROJECT_2_HOME_V2\PROJECT_2_HOME_V2\HOURLYEMPLOYEEPAY.CPP|E:\WINTER 2018\CIS200L\PROJECT_2_HOME_V2\PROJECT_2_HOME_V2\PROJECT_2_HOME_V2.CPP|E:\WINTER 2018\CIS200L\PROJECT_2_HOME_V2\PROJECT_2_HOME_V2\SALARYEMPLOYEEPAY.CPP
E:\WINTER 2018\CIS200L\PROJECT_2_HOME_V2\PROJECT_2_HOME_V2\DEBUG\VC141.PDB
E:\WINTER 2018\CIS200L\PROJECT_2_HOME_V2\PROJECT_2_HOME_V2\DEBUG\VC141.IDB
E:\WINTER 2018\CIS200L\PROJECT_2_HOME_V2\PROJECT_2_HOME_V2\DEBUG\AGENCYEMPLOYEEPAY.OBJ
E:\WINTER 2018\CIS200L\PROJECT_2_HOME_V2\PROJECT_2_HOME_V2\DEBUG\HOURLYEMPLOYEEPAY.OBJ
E:\WINTER 2018\CIS200L\PROJECT_2_HOME_V2\PROJECT_2_HOME_V2\DEBUG\PROJECT_2_HOME_V2.OBJ
E:\WINTER 2018\CIS200L\PROJECT_2_HOME_V2\PROJECT_2_HOME_V2\DEBUG\SALARYEMPLOYEEPAY.OBJ
