^E:\WINTER 2018\CIS200L\PROJECT_2_HOME_V2\PROJECT_2_HOME_V2\DEBUG\AGENCYEMPLOYEEPAY.OBJ|E:\WINTER 2018\CIS200L\PROJECT_2_HOME_V2\PROJECT_2_HOME_V2\DEBUG\EMPLOYEE.OBJ|E:\WINTER 2018\CIS200L\PROJECT_2_HOME_V2\PROJECT_2_HOME_V2\DEBUG\HOURLYEMPLOYEE.OBJ|E:\WINTER 2018\CIS200L\PROJECT_2_HOME_V2\PROJECT_2_HOME_V2\DEBUG\HOURLYEMPLOYEEPAY.OBJ|E:\WINTER 2018\CIS200L\PROJECT_2_HOME_V2\PROJECT_2_HOME_V2\DEBUG\PROJECT_2_HOME_V2.OBJ|E:\WINTER 2018\CIS200L\PROJECT_2_HOME_V2\PROJECT_2_HOME_V2\DEBUG\SALARYEMPLOYEEPAY.OBJ|E:\WINTER 2018\CIS200L\PROJECT_2_HOME_V2\PROJECT_2_HOME_V2\DEBUG\STDAFX.OBJ
C:\WINDOWS\GLOBALIZATION\SORTING\SORTDEFAULT.NLS
C:\PROGRAM FILES (X86)\WINDOWS KITS\10\LIB\10.0.16299.0\UM\X86\KERNEL32.LIB
C:\PROGRAM FILES (X86)\WINDOWS KITS\10\LIB\10.0.16299.0\UM\X86\USER32.LIB
C:\PROGRAM FILES (X86)\WINDOWS KITS\10\LIB\10.0.16299.0\UM\X86\GDI32.LIB
C:\PROGRAM FILES (X86)\WINDOWS KITS\10\LIB\10.0.16299.0\UM\X86\WINSPOOL.LIB
C:\PROGRAM FILES (X86)\WINDOWS KITS\10\LIB\10.0.16299.0\UM\X86\COMDLG32.LIB
C:\PROGRAM FILES (X86)\WINDOWS KITS\10\LIB\10.0.16299.0\UM\X86\ADVAPI32.LIB
C:\PROGRAM FILES (X86)\WINDOWS KITS\10\LIB\10.0.16299.0\UM\X86\SHELL32.LIB
C:\PROGRAM FILES (X86)\WINDOWS KITS\10\LIB\10.0.16299.0\UM\X86\OLE32.LIB
C:\PROGRAM FILES (X86)\WINDOWS KITS\10\LIB\10.0.16299.0\UM\X86\OLEAUT32.LIB
C:\PROGRAM FILES (X86)\WINDOWS KITS\10\LIB\10.0.16299.0\UM\X86\UUID.LIB
C:\PROGRAM FILES (X86)\WINDOWS KITS\10\LIB\10.0.16299.0\UM\X86\ODBC32.LIB
C:\PROGRAM FILES (X86)\WINDOWS KITS\10\LIB\10.0.16299.0\UM\X86\ODBCCP32.LIB
E:\WINTER 2018\CIS200L\PROJECT_2_HOME_V2\PROJECT_2_HOME_V2\DEBUG\AGENCYEMPLOYEEPAY.OBJ
E:\WINTER 2018\CIS200L\PROJECT_2_HOME_V2\PROJECT_2_HOME_V2\DEBUG\EMPLOYEE.OBJ
E:\WINTER 2018\CIS200L\PROJECT_2_HOME_V2\PROJECT_2_HOME_V2\DEBUG\HOURLYEMPLOYEE.OBJ
E:\WINTER 2018\CIS200L\PROJECT_2_HOME_V2\PROJECT_2_HOME_V2\DEBUG\HOURLYEMPLOYEEPAY.OBJ
E:\WINTER 2018\CIS200L\PROJECT_2_HOME_V2\PROJECT_2_HOME_V2\DEBUG\PROJECT_2_HOME_V2.OBJ
E:\WINTER 2018\CIS200L\PROJECT_2_HOME_V2\PROJECT_2_HOME_V2\DEBUG\SALARYEMPLOYEEPAY.OBJ
E:\WINTER 2018\CIS200L\PROJECT_2_HOME_V2\PROJECT_2_HOME_V2\DEBUG\STDAFX.OBJ
C:\WINDOWS\SYSTEM32\TZRES.DLL
C:\PROGRAM FILES (X86)\MICROSOFT VISUAL STUDIO\2017\COMMUNITY\VC\TOOLS\MSVC\14.11.25503\LIB\X86\MSVCPRTD.LIB
C:\PROGRAM FILES (X86)\MICROSOFT VISUAL STUDIO\2017\COMMUNITY\VC\TOOLS\MSVC\14.11.25503\LIB\X86\MSVCRTD.LIB
C:\PROGRAM FILES (X86)\MICROSOFT VISUAL STUDIO\2017\COMMUNITY\VC\TOOLS\MSVC\14.11.25503\LIB\X86\OLDNAMES.LIB
C:\PROGRAM FILES (X86)\MICROSOFT VISUAL STUDIO\2017\COMMUNITY\VC\TOOLS\MSVC\14.11.25503\LIB\X86\VCRUNTIMED.LIB
C:\PROGRAM FILES (X86)\WINDOWS KITS\10\LIB\10.0.16299.0\UCRT\X86\UCRTD.LIB
