^E:\WINTER 2018\CIS200L\PROJECT_2_HOME_V2\PROJECT_2_HOME_V2\DEBUG\AGENCYEMPLOYEEPAY.OBJ|E:\WINTER 2018\CIS200L\PROJECT_2_HOME_V2\PROJECT_2_HOME_V2\DEBUG\EMPLOYEE.OBJ|E:\WINTER 2018\CIS200L\PROJECT_2_HOME_V2\PROJECT_2_HOME_V2\DEBUG\HOURLYEMPLOYEE.OBJ|E:\WINTER 2018\CIS200L\PROJECT_2_HOME_V2\PROJECT_2_HOME_V2\DEBUG\HOURLYEMPLOYEEPAY.OBJ|E:\WINTER 2018\CIS200L\PROJECT_2_HOME_V2\PROJECT_2_HOME_V2\DEBUG\PROJECT_2_HOME_V2.OBJ|E:\WINTER 2018\CIS200L\PROJECT_2_HOME_V2\PROJECT_2_HOME_V2\DEBUG\SALARYEMPLOYEEPAY.OBJ|E:\WINTER 2018\CIS200L\PROJECT_2_HOME_V2\PROJECT_2_HOME_V2\DEBUG\STDAFX.OBJ
E:\WINTER 2018\CIS200L\PROJECT_2_HOME_V2\DEBUG\PROJECT_2_HOME_V2.EXE
E:\WINTER 2018\CIS200L\PROJECT_2_HOME_V2\DEBUG\PROJECT_2_HOME_V2.ILK
E:\WINTER 2018\CIS200L\PROJECT_2_HOME_V2\DEBUG\PROJECT_2_HOME_V2.PDB
